{
  "user": [
    {
      "nome": "string",
      "email": "strinsaagaasa@string.com",
      "senha": "senha",
      "telefones": [
        {
          "numero": "123456789",
          "ddd": "11"
        }
      ],
      "ultimo_login": "2019-06-06T20:15:52-03:00",
      "token": "789910a1-3aa5-4677-9e43-516e9abe88fc",
      "id": "0212d8be-f625-4f7f-ab08-c13b70da95d7",
      "data_criacao": "2019-06-06T20:15:52-03:00",
      "data_atualizacao": "2019-06-06T20:15:52-03:00"
    }
  ]
}